{
  "name": "business-project-be-api",
  "version": "0.1.0",
  "description": "API Business Project",
  "title": "API Business Project",
  "url": "https://business-project-be-api.herokuapp.com/api",
  "sampleUrl": false,
  "defaultVersion": "0.0.0",
  "apidoc": "0.3.0",
  "generator": {
    "name": "apidoc",
    "time": "2020-03-26T11:16:43.293Z",
    "url": "http://apidocjs.com",
    "version": "0.17.7"
  }
}
